{
  "slogan" : "Tinkatkan skill pemrograman kapan pun, dimana pun.",
  "desc" : "We’re a brand of passionate software engineers and educators with an engaging curriculum backed by real-world software projects ready to boost your career.",
  "titleDesc" : "Kursus pemrograman untuk semua orang tanpa terkecuali",
  "descCourse" : "Refactory Course dirancang untuk memudahkan setiap orang mampu meningkatkan keahlian dalam software engineering tanpa dibatasi oleh kesulitan akses, kesulitan waktu, batasan keahlian, ataupun usia.\n\nDengan pembelajaran berdasarkan pengalaman nyata pengerjaan project, bagi pelajar/mahasiswa, Refactory Course akan melengkapi keahlian yang sudah diperoleh dalam studi sehingga dapat membuka kesempatan tak terbatas pada karir software engineering.\n\nBagi karyawan atau tenaga profesional, Refactory Course dapat meningkatkan keahlian software engineer dalam menunjang menyelesaikan tugas pekerjaannya tanpa khawatir dengan keterbatasan waktu.\n\nMasyarakat secara luas juga dapat memanfaatkan pembelajaran untuk meningkatkan keahlian sehingga mampu berkarya dan mendapat keuntungan karir tanpa khawatir mahalnya belajar."
}
